{
  "servername": "archlinux",
  "port": "3000",
  "driver": "disk",
  "bucket": "hub",
  "readURL": "hub",
  "cacheControl": "public, max-age=1",
  "pageSize": 20,
  "diskSettings": {
    "storageRootDirectory": "/var/lib/gaia"
  },
  "awsCredentials": {
    "accessKeyId": "",
    "secretAccessKey": ""
  },

  "proofsConfig": {
    "proofsRequired" : 0
  },

  "azCredentials": {
    "accountName": "",
    "accountKey": ""
  },

  "argsTransport": {
    "level": "debug",
    "handleExceptions": true,
    "stringify": true,
    "timestamp": true,
    "colorize": true,
    "json": true
  }
}
